<svg width="20" height="21" viewBox="0 0 20 21" fill="none" xmlns="http://www.w3.org/2000/svg">
<path d="M16.692 5.35305L13.567 2.22805C13.4498 2.11083 13.2908 2.04498 13.125 2.04498H6.875C6.5436 2.04536 6.22587 2.17718 5.99154 2.41152C5.7572 2.64586 5.62538 2.96358 5.625 3.29498V4.54498H4.375C4.0436 4.54536 3.72587 4.67718 3.49154 4.91152C3.2572 5.14586 3.12538 5.46358 3.125 5.79498V17.045C3.12538 17.3764 3.2572 17.6941 3.49154 17.9284C3.72587 18.1628 4.0436 18.2946 4.375 18.295H13.125C13.4564 18.2946 13.7741 18.1628 14.0085 17.9284C14.2428 17.6941 14.3746 17.3764 14.375 17.045V15.795H15.625C15.9564 15.7946 16.2741 15.6628 16.5085 15.4284C16.7428 15.1941 16.8746 14.8764 16.875 14.545V5.79498C16.875 5.62923 16.8092 5.47026 16.692 5.35305ZM10.625 15.17H6.875C6.70924 15.17 6.55027 15.1041 6.43306 14.9869C6.31585 14.8697 6.25 14.7107 6.25 14.545C6.25 14.3792 6.31585 14.2203 6.43306 14.103C6.55027 13.9858 6.70924 13.92 6.875 13.92H10.625C10.7908 13.92 10.9497 13.9858 11.0669 14.103C11.1842 14.2203 11.25 14.3792 11.25 14.545C11.25 14.7107 11.1842 14.8697 11.0669 14.9869C10.9497 15.1041 10.7908 15.17 10.625 15.17ZM10.625 12.67H6.875C6.70924 12.67 6.55027 12.6041 6.43306 12.4869C6.31585 12.3697 6.25 12.2107 6.25 12.045C6.25 11.8792 6.31585 11.7203 6.43306 11.603C6.55027 11.4858 6.70924 11.42 6.875 11.42H10.625C10.7908 11.42 10.9497 11.4858 11.0669 11.603C11.1842 11.7203 11.25 11.8792 11.25 12.045C11.25 12.2107 11.1842 12.3697 11.0669 12.4869C10.9497 12.6041 10.7908 12.67 10.625 12.67ZM15.625 14.545H14.375V8.29498C14.375 8.12923 14.3092 7.97026 14.192 7.85305L11.067 4.72805C10.9498 4.61084 10.7908 4.54498 10.625 4.54498H6.875V3.29498H12.8661L15.625 6.05389V14.545Z" fill="white"/>
</svg>
