<svg width="5" height="10" viewBox="0 0 5 10" fill="none" xmlns="http://www.w3.org/2000/svg">
<path d="M4.0026 1.33334L1.33594 5.00001L4.0026 8.66668" stroke="white" stroke-linecap="round" stroke-linejoin="round"/>
</svg>
