<svg width="14" height="18" viewBox="0 0 14 18" fill="none" xmlns="http://www.w3.org/2000/svg">
<path d="M13.692 4.18307L10.567 1.05807C10.4498 0.940852 10.2908 0.875001 10.125 0.875H3.875C3.5436 0.875379 3.22587 1.0072 2.99154 1.24154C2.7572 1.47587 2.62538 1.7936 2.625 2.125V3.375H1.375C1.0436 3.37538 0.725874 3.5072 0.491535 3.74154C0.257197 3.97587 0.125379 4.2936 0.125 4.625V15.875C0.125379 16.2064 0.257197 16.5241 0.491535 16.7585C0.725874 16.9928 1.0436 17.1246 1.375 17.125H10.125C10.4564 17.1246 10.7741 16.9928 11.0085 16.7585C11.2428 16.5241 11.3746 16.2064 11.375 15.875V14.625H12.625C12.9564 14.6246 13.2741 14.4928 13.5085 14.2585C13.7428 14.0241 13.8746 13.7064 13.875 13.375V4.625C13.875 4.45925 13.8092 4.30028 13.692 4.18307ZM7.625 14H3.875C3.70924 14 3.55027 13.9342 3.43306 13.8169C3.31585 13.6997 3.25 13.5408 3.25 13.375C3.25 13.2092 3.31585 13.0503 3.43306 12.9331C3.55027 12.8158 3.70924 12.75 3.875 12.75H7.625C7.79076 12.75 7.94973 12.8158 8.06694 12.9331C8.18415 13.0503 8.25 13.2092 8.25 13.375C8.25 13.5408 8.18415 13.6997 8.06694 13.8169C7.94973 13.9342 7.79076 14 7.625 14ZM7.625 11.5H3.875C3.70924 11.5 3.55027 11.4342 3.43306 11.3169C3.31585 11.1997 3.25 11.0408 3.25 10.875C3.25 10.7092 3.31585 10.5503 3.43306 10.4331C3.55027 10.3158 3.70924 10.25 3.875 10.25H7.625C7.79076 10.25 7.94973 10.3158 8.06694 10.4331C8.18415 10.5503 8.25 10.7092 8.25 10.875C8.25 11.0408 8.18415 11.1997 8.06694 11.3169C7.94973 11.4342 7.79076 11.5 7.625 11.5ZM12.625 13.375H11.375V7.125C11.375 6.95925 11.3092 6.80028 11.192 6.68307L8.06697 3.55807C7.94975 3.44085 7.79077 3.375 7.625 3.375H3.875V2.125H9.86613L12.625 4.88391V13.375Z" fill="#0A0A0A"/>
</svg>
