<svg width="14" height="8" viewBox="0 0 14 8" fill="none" xmlns="http://www.w3.org/2000/svg">
<path fill-rule="evenodd" clip-rule="evenodd" d="M0.308056 0.227978C0.552131 -0.0160969 0.947865 -0.0160969 1.19194 0.227978L7 6.036L12.8081 0.227978C13.0522 -0.0160969 13.4478 -0.0160969 13.6919 0.227978C13.936 0.472053 13.936 0.867786 13.6919 1.11186L7.44191 7.36184C7.19783 7.60592 6.80216 7.60592 6.55808 7.36184L0.308056 1.11186C0.0639812 0.867786 0.0639812 0.472053 0.308056 0.227978Z" fill="white"/>
</svg>
